{"data":[],"links":{"first":"http:\/\/localhost:8001\/api\/users?page=1","last":"http:\/\/localhost:8001\/api\/users?page=2","prev":"http:\/\/localhost:8001\/api\/users?page=2","next":null},"meta":{"current_page":3,"from":null,"last_page":2,"links":[{"url":"http:\/\/localhost:8001\/api\/users?page=2","label":"Previous","active":false},{"url":"http:\/\/localhost:8001\/api\/users?page=1","label":1,"active":false},{"url":"http:\/\/localhost:8001\/api\/users?page=2","label":2,"active":false},{"url":null,"label":"Next","active":false}],"path":"http:\/\/localhost:8001\/api\/users","per_page":15,"to":null,"total":23}}