{"data":[{"id":16,"first_name":"Frances","last_name":"Emmerich","email":"daisy87@example.com","is_influencer":1,"created_at":"2020-07-30T06:20:27.000000Z","updated_at":"2020-07-30T06:20:27.000000Z"},{"id":17,"first_name":"Orie","last_name":"Nitzsche","email":"rolfson.alexys@example.net","is_influencer":1,"created_at":"2020-07-30T06:20:27.000000Z","updated_at":"2020-07-30T06:20:27.000000Z"},{"id":18,"first_name":"Manuela","last_name":"Ryan","email":"jackie54@example.net","is_influencer":1,"created_at":"2020-07-30T06:20:27.000000Z","updated_at":"2020-07-30T06:20:27.000000Z"},{"id":19,"first_name":"Rashad","last_name":"Parker","email":"beau89@example.net","is_influencer":1,"created_at":"2020-07-30T06:20:27.000000Z","updated_at":"2020-07-30T06:20:27.000000Z"},{"id":20,"first_name":"Reymundo","last_name":"Mante","email":"weber.candelario@example.org","is_influencer":1,"created_at":"2020-07-30T06:20:27.000000Z","updated_at":"2020-07-30T06:20:27.000000Z"},{"id":21,"first_name":"Admin","last_name":"Admin","email":"admin@admin.com","is_influencer":0,"created_at":"2020-07-30T06:20:27.000000Z","updated_at":"2020-07-30T06:20:27.000000Z"},{"id":22,"first_name":"Editor","last_name":"Editor","email":"editor@editor.com","is_influencer":0,"created_at":"2020-07-30T06:20:27.000000Z","updated_at":"2020-07-30T06:20:27.000000Z"},{"id":23,"first_name":"Viewer","last_name":"Viewer","email":"viewer@viewer.com","is_influencer":0,"created_at":"2020-07-30T06:20:27.000000Z","updated_at":"2020-07-30T06:20:27.000000Z"}],"links":{"first":"http:\/\/localhost:8001\/api\/users?page=1","last":"http:\/\/localhost:8001\/api\/users?page=2","prev":"http:\/\/localhost:8001\/api\/users?page=1","next":null},"meta":{"current_page":2,"from":16,"last_page":2,"links":[{"url":"http:\/\/localhost:8001\/api\/users?page=1","label":"Previous","active":false},{"url":"http:\/\/localhost:8001\/api\/users?page=1","label":1,"active":false},{"url":"http:\/\/localhost:8001\/api\/users?page=2","label":2,"active":true},{"url":null,"label":"Next","active":false}],"path":"http:\/\/localhost:8001\/api\/users","per_page":15,"to":23,"total":23}}