{"current_page":1,"data":[{"id":1,"first_name":"Zechariah","last_name":"Bergnaum","email":"heaney.sasha@example.com","is_influencer":1,"created_at":"2020-07-30T06:20:27.000000Z","updated_at":"2020-07-30T06:20:27.000000Z"},{"id":2,"first_name":"Makenzie","last_name":"O'Reilly","email":"sawayn.melvin@example.org","is_influencer":1,"created_at":"2020-07-30T06:20:27.000000Z","updated_at":"2020-07-30T06:20:27.000000Z"},{"id":3,"first_name":"Damian","last_name":"D'Amore","email":"anya.koepp@example.org","is_influencer":1,"created_at":"2020-07-30T06:20:27.000000Z","updated_at":"2020-07-30T06:20:27.000000Z"},{"id":4,"first_name":"Adell","last_name":"Mills","email":"clay18@example.net","is_influencer":1,"created_at":"2020-07-30T06:20:27.000000Z","updated_at":"2020-07-30T06:20:27.000000Z"},{"id":5,"first_name":"Jewell","last_name":"Bode","email":"mlemke@example.com","is_influencer":1,"created_at":"2020-07-30T06:20:27.000000Z","updated_at":"2020-07-30T06:20:27.000000Z"},{"id":6,"first_name":"Newell","last_name":"Bogan","email":"wehner.reece@example.com","is_influencer":1,"created_at":"2020-07-30T06:20:27.000000Z","updated_at":"2020-07-30T06:20:27.000000Z"},{"id":7,"first_name":"Lauriane","last_name":"Glover","email":"zemlak.quinton@example.com","is_influencer":1,"created_at":"2020-07-30T06:20:27.000000Z","updated_at":"2020-07-30T06:20:27.000000Z"},{"id":8,"first_name":"Lempi","last_name":"Hamill","email":"clementine33@example.com","is_influencer":1,"created_at":"2020-07-30T06:20:27.000000Z","updated_at":"2020-07-30T06:20:27.000000Z"},{"id":9,"first_name":"Nicole","last_name":"Pfeffer","email":"yessenia95@example.net","is_influencer":1,"created_at":"2020-07-30T06:20:27.000000Z","updated_at":"2020-07-30T06:20:27.000000Z"},{"id":10,"first_name":"Tyrell","last_name":"Mayert","email":"tcollins@example.net","is_influencer":1,"created_at":"2020-07-30T06:20:27.000000Z","updated_at":"2020-07-30T06:20:27.000000Z"},{"id":11,"first_name":"Zechariah","last_name":"Corkery","email":"khalid72@example.net","is_influencer":1,"created_at":"2020-07-30T06:20:27.000000Z","updated_at":"2020-07-30T06:20:27.000000Z"},{"id":12,"first_name":"Kira","last_name":"Paucek","email":"jaycee06@example.net","is_influencer":1,"created_at":"2020-07-30T06:20:27.000000Z","updated_at":"2020-07-30T06:20:27.000000Z"},{"id":13,"first_name":"Kian","last_name":"Bosco","email":"monserrate19@example.com","is_influencer":1,"created_at":"2020-07-30T06:20:27.000000Z","updated_at":"2020-07-30T06:20:27.000000Z"},{"id":14,"first_name":"Polly","last_name":"Morar","email":"tturcotte@example.net","is_influencer":1,"created_at":"2020-07-30T06:20:27.000000Z","updated_at":"2020-07-30T06:20:27.000000Z"},{"id":15,"first_name":"Reyna","last_name":"Wiegand","email":"elijah.upton@example.net","is_influencer":1,"created_at":"2020-07-30T06:20:27.000000Z","updated_at":"2020-07-30T06:20:27.000000Z"}],"first_page_url":"http:\/\/localhost:8001\/api\/users?page=1","from":1,"last_page":2,"last_page_url":"http:\/\/localhost:8001\/api\/users?page=2","links":[{"url":null,"label":"Previous","active":false},{"url":"http:\/\/localhost:8001\/api\/users?page=1","label":1,"active":true},{"url":"http:\/\/localhost:8001\/api\/users?page=2","label":2,"active":false},{"url":"http:\/\/localhost:8001\/api\/users?page=2","label":"Next","active":false}],"next_page_url":"http:\/\/localhost:8001\/api\/users?page=2","path":"http:\/\/localhost:8001\/api\/users","per_page":15,"prev_page_url":null,"to":15,"total":23}