{"data":[{"id":1,"first_name":"Lupe","last_name":"Hudson","email":"fermin.cartwright@example.com"},{"id":2,"first_name":"Miracle","last_name":"Lueilwitz","email":"alek.koss@example.com"},{"id":3,"first_name":"Kenna","last_name":"Moen","email":"nicholas32@example.org"},{"id":4,"first_name":"Mark","last_name":"Considine","email":"ward.feeney@example.com"},{"id":5,"first_name":"Rubie","last_name":"O'Reilly","email":"betsy.zboncak@example.org"},{"id":6,"first_name":"Clementine","last_name":"Lebsack","email":"carmelo18@example.net"},{"id":7,"first_name":"Kiarra","last_name":"Mohr","email":"cartwright.godfrey@example.org"},{"id":8,"first_name":"Joel","last_name":"Runolfsdottir","email":"kailee.upton@example.com"},{"id":9,"first_name":"Krystal","last_name":"Flatley","email":"turner.jakob@example.com"},{"id":10,"first_name":"Abbigail","last_name":"Cummerata","email":"lily06@example.net"},{"id":11,"first_name":"Johan","last_name":"Beatty","email":"idella67@example.com"},{"id":12,"first_name":"Reina","last_name":"Lueilwitz","email":"rkuhic@example.com"},{"id":13,"first_name":"Freda","last_name":"Kohler","email":"yessenia20@example.com"},{"id":14,"first_name":"German","last_name":"Boehm","email":"akuhic@example.org"},{"id":15,"first_name":"Demario","last_name":"Weber","email":"pleffler@example.org"}],"links":{"first":"http:\/\/localhost:8000\/api\/admin\/users?page=1","last":"http:\/\/localhost:8000\/api\/admin\/users?page=2","prev":null,"next":"http:\/\/localhost:8000\/api\/admin\/users?page=2"},"meta":{"current_page":1,"from":1,"last_page":2,"path":"http:\/\/localhost:8000\/api\/admin\/users","per_page":15,"to":15,"total":24}}